06032020 09:58:24 ;  ;  ; 
06032020 09:58:28 ; 23.77 ; 23.47 ; 24.18
06032020 09:58:29 ; 23.84 ; 23.50 ; 24.21
06032020 09:58:30 ; 23.87 ; 23.57 ; 24.21
06032020 09:58:31 ; 23.94 ; 23.64 ; 24.21
06032020 09:58:33 ; 23.98 ; 23.67 ; 24.25
06032020 09:58:34 ; 24.01 ; 23.70 ; 24.25
06032020 09:58:35 ; 24.04 ; 23.67 ; 24.28
06032020 09:58:36 ; 24.08 ; 23.74 ; 24.28
06032020 09:58:38 ; 24.04 ; 23.77 ; 24.28
06032020 09:58:39 ; 24.08 ; 23.77 ; 24.31
06032020 09:58:40 ; 24.11 ; 23.77 ; 24.31
06032020 09:58:41 ; 24.11 ; 23.77 ; 24.31
06032020 09:58:43 ; 24.11 ; 23.84 ; 24.31
06032020 09:58:44 ; 24.11 ; 23.84 ; 24.31
06032020 09:58:45 ; 24.14 ; 23.84 ; 24.31
06032020 09:58:46 ; 24.11 ; 23.81 ; 24.31
06032020 09:58:47 ; 24.14 ; 23.87 ; 24.31
06032020 09:58:49 ; 24.14 ; 23.87 ; 24.31
06032020 09:58:50 ; 24.11 ; 23.84 ; 24.31
06032020 09:58:51 ; 24.14 ; 23.84 ; 24.31
06032020 09:58:52 ; 24.14 ; 23.87 ; 24.28
06032020 09:58:54 ; 24.18 ; 23.91 ; 24.31
06032020 09:58:55 ; 24.18 ; 23.87 ; 24.31
06032020 09:58:56 ; 24.14 ; 23.91 ; 24.28
06032020 09:58:57 ; 24.14 ; 23.87 ; 24.28
06032020 09:58:59 ; 24.14 ; 23.87 ; 24.31
06032020 09:59:00 ; 24.14 ; 23.87 ; 24.31
06032020 09:59:01 ; 24.18 ; 23.91 ; 24.28
06032020 09:59:02 ; 24.18 ; 23.91 ; 24.31
06032020 09:59:04 ; 24.18 ; 23.91 ; 24.28
06032020 09:59:05 ; 24.14 ; 23.91 ; 24.31
06032020 09:59:06 ; 24.18 ; 23.91 ; 24.31
06032020 09:59:07 ; 24.18 ; 23.94 ; 24.31
06032020 09:59:09 ; 24.18 ; 23.94 ; 24.28
06032020 09:59:10 ; 24.18 ; 23.94 ; 24.28
06032020 09:59:11 ; 24.18 ; 23.91 ; 24.28
06032020 09:59:12 ; 24.18 ; 23.94 ; 24.28
06032020 09:59:14 ; 24.14 ; 23.94 ; 24.31
06032020 09:59:15 ; 24.14 ; 23.94 ; 24.28
06032020 09:59:16 ; 24.14 ; 23.94 ; 24.28
06032020 09:59:17 ; 24.18 ; 23.94 ; 24.28
06032020 09:59:19 ; 24.18 ; 23.94 ; 24.28
06032020 09:59:20 ; 24.18 ; 23.94 ; 24.31
06032020 09:59:21 ; 24.14 ; 23.94 ; 24.31
06032020 09:59:22 ; 24.18 ; 23.94 ; 24.31
06032020 09:59:24 ; 24.14 ; 23.94 ; 24.31
06032020 09:59:25 ; 24.18 ; 23.98 ; 24.31
06032020 09:59:26 ; 24.14 ; 23.94 ; 24.31
06032020 09:59:27 ; 24.18 ; 23.94 ; 24.31
06032020 09:59:29 ; 24.18 ; 23.98 ; 24.35
06032020 09:59:30 ; 24.14 ; 23.98 ; 24.31
06032020 09:59:31 ; 24.14 ; 23.94 ; 24.35
06032020 09:59:32 ; 24.18 ; 23.98 ; 24.31
06032020 09:59:34 ; 24.18 ; 23.94 ; 24.31
06032020 09:59:35 ; 24.14 ; 23.94 ; 24.31
06032020 09:59:36 ; 24.14 ; 23.98 ; 24.31
06032020 09:59:37 ; 24.18 ; 23.94 ; 24.31
06032020 09:59:39 ; 24.18 ; 23.98 ; 24.31
06032020 09:59:40 ; 24.18 ; 24.01 ; 24.31
06032020 09:59:41 ; 24.14 ; 24.08 ; 24.31
06032020 09:59:42 ; 24.14 ; 24.25 ; 24.35
06032020 09:59:44 ; 24.18 ; 26.44 ; 24.35
06032020 09:59:45 ; 24.14 ; 28.54 ; 24.35
06032020 09:59:46 ; 24.14 ; 28.75 ; 24.35
06032020 09:59:47 ; 24.14 ; 28.37 ; 24.35
06032020 09:59:49 ; 24.14 ; 27.97 ; 24.35
06032020 09:59:50 ; 24.14 ; 27.73 ; 24.35
06032020 09:59:51 ; 24.14 ; 27.39 ; 24.35
06032020 09:59:52 ; 24.14 ; 27.19 ; 24.38
06032020 09:59:54 ; 24.14 ; 26.99 ; 24.38
06032020 09:59:55 ; 24.14 ; 26.82 ; 24.38
06032020 09:59:56 ; 24.14 ; 26.65 ; 24.38
06032020 09:59:57 ; 24.14 ; 26.51 ; 24.38
06032020 09:59:59 ; 24.18 ; 26.34 ; 24.38
06032020 10:00:00 ; 24.18 ; 26.11 ; 24.38
06032020 10:00:01 ; 24.14 ; 25.94 ; 24.38
06032020 10:00:02 ; 24.14 ; 25.87 ; 24.38
06032020 10:00:04 ; 24.14 ; 25.73 ; 24.35
06032020 10:00:05 ; 24.14 ; 25.63 ; 24.38
06032020 10:00:06 ; 24.18 ; 25.57 ; 24.35
